tools/PeakPower/simx.vcd
$version Generated by VerilatedVcd $end
$timescale 1ps $end
 $scope module top $end
  $var wire 1 0 clk $end
  $scope module t $end
   $var wire 1 0 clk $end
   $var wire 32 # cyc [31:0] $end
   $scope module intf_1 $end
    $var wire 1 0 clk $end
    $var wire 32 # cyc [31:0] $end
    $var wire 32 $ value [31:0] $end
    $scope module the_struct $end
     $var wire 32 % val100 [31:0] $end
     $var wire 32 & val200 [31:0] $end
    $upscope $end
    $scope module inner $end
     $var wire 32 # cyc [31:0] $end
     $var wire 32 1 value [31:0] $end
    $upscope $end
   $upscope $end
   $scope module intf_2 $end
    $var wire 1 0 clk $end
    $var wire 32 # cyc [31:0] $end
    $var wire 32 ' value [31:0] $end
    $scope module the_struct $end
     $var wire 32 ( val100 [31:0] $end
     $var wire 32 ) val200 [31:0] $end
    $upscope $end
    $scope module inner $end
     $var wire 32 # cyc [31:0] $end
     $var wire 32 2 value [31:0] $end
    $upscope $end
   $upscope $end
   $scope module a $end
    $scope module intf_one $end
     $var wire 1 0 clk $end
     $var wire 32 # cyc [31:0] $end
     $var wire 32 $ value [31:0] $end
     $scope module the_struct $end
      $var wire 32 % val100 [31:0] $end
      $var wire 32 & val200 [31:0] $end
     $upscope $end
     $scope module inner $end
      $var wire 32 # cyc [31:0] $end
      $var wire 32 1 value [31:0] $end
     $upscope $end
    $upscope $end
    $scope module intf_two $end
     $var wire 1 0 clk $end
     $var wire 32 # cyc [31:0] $end
     $var wire 32 ' value [31:0] $end
     $scope module the_struct $end
      $var wire 32 ( val100 [31:0] $end
      $var wire 32 ) val200 [31:0] $end
     $upscope $end
     $scope module inner $end
      $var wire 32 # cyc [31:0] $end
      $var wire 32 2 value [31:0] $end
     $upscope $end
    $upscope $end
    $scope module intf_in_sub_all $end
     $var wire 1 0 clk $end
     $var wire 32 # cyc [31:0] $end
     $var wire 32 * value [31:0] $end
     $scope module the_struct $end
      $var wire 32 + val100 [31:0] $end
      $var wire 32 , val200 [31:0] $end
     $upscope $end
     $scope module inner $end
      $var wire 32 # cyc [31:0] $end
      $var wire 32 3 value [31:0] $end
     $upscope $end
    $upscope $end
    $scope module ac1 $end
     $scope module intf_for_check $end
      $var wire 1 0 clk $end
      $var wire 32 # cyc [31:0] $end
      $var wire 32 $ value [31:0] $end
      $scope module the_struct $end
       $var wire 32 % val100 [31:0] $end
       $var wire 32 & val200 [31:0] $end
      $upscope $end
      $scope module inner $end
       $var wire 32 # cyc [31:0] $end
       $var wire 32 1 value [31:0] $end
      $upscope $end
     $upscope $end
    $upscope $end
    $scope module ac2 $end
     $scope module intf_for_check $end
      $var wire 1 0 clk $end
      $var wire 32 # cyc [31:0] $end
      $var wire 32 ' value [31:0] $end
      $scope module the_struct $end
       $var wire 32 ( val100 [31:0] $end
       $var wire 32 ) val200 [31:0] $end
      $upscope $end
      $scope module inner $end
       $var wire 32 # cyc [31:0] $end
       $var wire 32 2 value [31:0] $end
      $upscope $end
     $upscope $end
    $upscope $end
    $scope module ac3 $end
     $scope module intf_for_check $end
      $var wire 1 0 clk $end
      $var wire 32 # cyc [31:0] $end
      $var wire 32 * value [31:0] $end
      $scope module the_struct $end
       $var wire 32 + val100 [31:0] $end
       $var wire 32 , val200 [31:0] $end
      $upscope $end
      $scope module inner $end
       $var wire 32 # cyc [31:0] $end
       $var wire 32 3 value [31:0] $end
      $upscope $end
     $upscope $end
    $upscope $end
    $scope module as3 $end
     $scope module intf_for_struct $end
      $var wire 1 0 clk $end
      $var wire 32 # cyc [31:0] $end
      $var wire 32 * value [31:0] $end
      $scope module the_struct $end
       $var wire 32 + val100 [31:0] $end
       $var wire 32 , val200 [31:0] $end
      $upscope $end
      $scope module inner $end
       $var wire 32 # cyc [31:0] $end
       $var wire 32 3 value [31:0] $end
      $upscope $end
     $upscope $end
    $upscope $end
   $upscope $end
   $scope module abcdefghijklmnopqrstuvwxyz $end
    $scope module intf_one $end
     $var wire 1 0 clk $end
     $var wire 32 # cyc [31:0] $end
     $var wire 32 ' value [31:0] $end
     $scope module the_struct $end
      $var wire 32 ( val100 [31:0] $end
      $var wire 32 ) val200 [31:0] $end
     $upscope $end
     $scope module inner $end
      $var wire 32 # cyc [31:0] $end
      $var wire 32 2 value [31:0] $end
     $upscope $end
    $upscope $end
    $scope module intf_two $end
     $var wire 1 0 clk $end
     $var wire 32 # cyc [31:0] $end
     $var wire 32 $ value [31:0] $end
     $scope module the_struct $end
      $var wire 32 % val100 [31:0] $end
      $var wire 32 & val200 [31:0] $end
     $upscope $end
     $scope module inner $end
      $var wire 32 # cyc [31:0] $end
      $var wire 32 1 value [31:0] $end
     $upscope $end
    $upscope $end
    $scope module intf_in_sub_all $end
     $var wire 1 0 clk $end
     $var wire 32 # cyc [31:0] $end
     $var wire 32 - value [31:0] $end
     $scope module the_struct $end
      $var wire 32 . val100 [31:0] $end
      $var wire 32 / val200 [31:0] $end
     $upscope $end
     $scope module inner $end
      $var wire 32 # cyc [31:0] $end
      $var wire 32 4 value [31:0] $end
     $upscope $end
    $upscope $end
    $scope module ac1 $end
     $scope module intf_for_check $end
      $var wire 1 0 clk $end
      $var wire 32 # cyc [31:0] $end
      $var wire 32 ' value [31:0] $end
      $scope module the_struct $end
       $var wire 32 ( val100 [31:0] $end
       $var wire 32 ) val200 [31:0] $end
      $upscope $end
      $scope module inner $end
       $var wire 32 # cyc [31:0] $end
       $var wire 32 2 value [31:0] $end
      $upscope $end
     $upscope $end
    $upscope $end
    $scope module ac2 $end
     $scope module intf_for_check $end
      $var wire 1 0 clk $end
      $var wire 32 # cyc [31:0] $end
      $var wire 32 $ value [31:0] $end
      $scope module the_struct $end
       $var wire 32 % val100 [31:0] $end
       $var wire 32 & val200 [31:0] $end
      $upscope $end
      $scope module inner $end
       $var wire 32 # cyc [31:0] $end
       $var wire 32 1 value [31:0] $end
      $upscope $end
     $upscope $end
    $upscope $end
    $scope module ac3 $end
     $scope module intf_for_check $end
      $var wire 1 0 clk $end
      $var wire 32 # cyc [31:0] $end
      $var wire 32 - value [31:0] $end
      $scope module the_struct $end
       $var wire 32 . val100 [31:0] $end
       $var wire 32 / val200 [31:0] $end
      $upscope $end
      $scope module inner $end
       $var wire 32 # cyc [31:0] $end
       $var wire 32 4 value [31:0] $end
      $upscope $end
     $upscope $end
    $upscope $end
    $scope module as3 $end
     $scope module intf_for_struct $end
      $var wire 1 0 clk $end
      $var wire 32 # cyc [31:0] $end
      $var wire 32 - value [31:0] $end
      $scope module the_struct $end
       $var wire 32 . val100 [31:0] $end
       $var wire 32 / val200 [31:0] $end
      $upscope $end
      $scope module inner $end
       $var wire 32 # cyc [31:0] $end
       $var wire 32 4 value [31:0] $end
      $upscope $end
     $upscope $end
    $upscope $end
   $upscope $end
   $scope module c1 $end
    $scope module intf_for_check $end
     $var wire 1 0 clk $end
     $var wire 32 # cyc [31:0] $end
     $var wire 32 $ value [31:0] $end
     $scope module the_struct $end
      $var wire 32 % val100 [31:0] $end
      $var wire 32 & val200 [31:0] $end
     $upscope $end
     $scope module inner $end
      $var wire 32 # cyc [31:0] $end
      $var wire 32 1 value [31:0] $end
     $upscope $end
    $upscope $end
   $upscope $end
   $scope module c2 $end
    $scope module intf_for_check $end
     $var wire 1 0 clk $end
     $var wire 32 # cyc [31:0] $end
     $var wire 32 ' value [31:0] $end
     $scope module the_struct $end
      $var wire 32 ( val100 [31:0] $end
      $var wire 32 ) val200 [31:0] $end
     $upscope $end
     $scope module inner $end
      $var wire 32 # cyc [31:0] $end
      $var wire 32 2 value [31:0] $end
     $upscope $end
    $upscope $end
   $upscope $end
   $scope module s1 $end
    $scope module intf_for_struct $end
     $var wire 1 0 clk $end
     $var wire 32 # cyc [31:0] $end
     $var wire 32 $ value [31:0] $end
     $scope module the_struct $end
      $var wire 32 % val100 [31:0] $end
      $var wire 32 & val200 [31:0] $end
     $upscope $end
     $scope module inner $end
      $var wire 32 # cyc [31:0] $end
      $var wire 32 1 value [31:0] $end
     $upscope $end
    $upscope $end
   $upscope $end
   $scope module s2 $end
    $scope module intf_for_struct $end
     $var wire 1 0 clk $end
     $var wire 32 # cyc [31:0] $end
     $var wire 32 ' value [31:0] $end
     $scope module the_struct $end
      $var wire 32 ( val100 [31:0] $end
      $var wire 32 ) val200 [31:0] $end
     $upscope $end
     $scope module inner $end
      $var wire 32 # cyc [31:0] $end
      $var wire 32 2 value [31:0] $end
     $upscope $end
    $upscope $end
   $upscope $end
  $upscope $end
 $upscope $end
$enddefinitions $end


#0
b00000000000000000000000000000000 #
b00000000000000000000000000000001 $
b00000000000000000000000001100101 %
b00000000000000000000000011001001 &
b00000000000000000000000000000010 '
b00000000000000000000000001100110 (
b00000000000000000000000011001010 )
b00000000000000000000001111101001 *
b00000000000000000000010001001101 +
b00000000000000000000010010110001 ,
b00000000000000000000001111101010 -
b00000000000000000000010001001110 .
b00000000000000000000010010110010 /
00
b00000000000000000000000000000000 1
b00000000000000000000000000000000 2
b00000000000000000000000000000000 3
b00000000000000000000000000000000 4
#10
b00000000000000000000000000000001 #
b00000000000000000000000000000010 $
b00000000000000000000000001100110 %
b00000000000000000000000011001010 &
b00000000000000000000000000000011 '
b00000000000000000000000001100111 (
b00000000000000000000000011001011 )
b00000000000000000000001111101010 *
b00000000000000000000010001001110 +
b00000000000000000000010010110010 ,
b00000000000000000000001111101011 -
b00000000000000000000010001001111 .
b00000000000000000000010010110011 /
10
#15
00
#20
b00000000000000000000000000000010 #
b00000000000000000000000000000011 $
b00000000000000000000000001100111 %
b00000000000000000000000011001011 &
b00000000000000000000000000000100 '
b00000000000000000000000001101000 (
b00000000000000000000000011001100 )
b00000000000000000000001111101011 *
b00000000000000000000010001001111 +
b00000000000000000000010010110011 ,
b00000000000000000000001111101100 -
b00000000000000000000010001010000 .
b00000000000000000000010010110100 /
10
#25
00
#30
b00000000000000000000000000000011 #
b00000000000000000000000000000100 $
b00000000000000000000000001101000 %
b00000000000000000000000011001100 &
b00000000000000000000000000000101 '
b00000000000000000000000001101001 (
b00000000000000000000000011001101 )
b00000000000000000000001111101100 *
b00000000000000000000010001010000 +
b00000000000000000000010010110100 ,
b00000000000000000000001111101101 -
b00000000000000000000010001010001 .
b00000000000000000000010010110101 /
10
#35
00
#40
b00000000000000000000000000000100 #
b00000000000000000000000000000101 $
b00000000000000000000000001101001 %
b00000000000000000000000011001101 &
b00000000000000000000000000000110 '
b00000000000000000000000001101010 (
b00000000000000000000000011001110 )
b00000000000000000000001111101101 *
b00000000000000000000010001010001 +
b00000000000000000000010010110101 ,
b00000000000000000000001111101110 -
b00000000000000000000010001010010 .
b00000000000000000000010010110110 /
10
#45
00
#50
b00000000000000000000000000000101 #
b00000000000000000000000000000110 $
b00000000000000000000000001101010 %
b00000000000000000000000011001110 &
b00000000000000000000000000000111 '
b00000000000000000000000001101011 (
b00000000000000000000000011001111 )
b00000000000000000000001111101110 *
b00000000000000000000010001010010 +
b00000000000000000000010010110110 ,
b00000000000000000000001111101111 -
b00000000000000000000010001010011 .
b00000000000000000000010010110111 /
10
#55
00
#60
b00000000000000000000000000000110 #
b00000000000000000000000000000111 $
b00000000000000000000000001101011 %
b00000000000000000000000011001111 &
b00000000000000000000000000001000 '
b00000000000000000000000001101100 (
b00000000000000000000000011010000 )
b00000000000000000000001111101111 *
b00000000000000000000010001010011 +
b00000000000000000000010010110111 ,
b00000000000000000000001111110000 -
b00000000000000000000010001010100 .
b00000000000000000000010010111000 /
10
#65
00
#70
b00000000000000000000000000000111 #
b00000000000000000000000000001000 $
b00000000000000000000000001101100 %
b00000000000000000000000011010000 &
b00000000000000000000000000001001 '
b00000000000000000000000001101101 (
b00000000000000000000000011010001 )
b00000000000000000000001111110000 *
b00000000000000000000010001010100 +
b00000000000000000000010010111000 ,
b00000000000000000000001111110001 -
b00000000000000000000010001010101 .
b00000000000000000000010010111001 /
10
#75
00
#80
b00000000000000000000000000001000 #
b00000000000000000000000000001001 $
b00000000000000000000000001101101 %
b00000000000000000000000011010001 &
b00000000000000000000000000001010 '
b00000000000000000000000001101110 (
b00000000000000000000000011010010 )
b00000000000000000000001111110001 *
b00000000000000000000010001010101 +
b00000000000000000000010010111001 ,
b00000000000000000000001111110010 -
b00000000000000000000010001010110 .
b00000000000000000000010010111010 /
10
#85
00
#90
b00000000000000000000000000001001 #
b00000000000000000000000000001010 $
b00000000000000000000000001101110 %
b00000000000000000000000011010010 &
b00000000000000000000000000001011 '
b00000000000000000000000001101111 (
b00000000000000000000000011010011 )
b00000000000000000000001111110010 *
b00000000000000000000010001010110 +
b00000000000000000000010010111010 ,
b00000000000000000000001111110011 -
b00000000000000000000010001010111 .
b00000000000000000000010010111011 /
10
#95
00
#100
b00000000000000000000000000001010 #
b00000000000000000000000000001011 $
b00000000000000000000000001101111 %
b00000000000000000000000011010011 &
b00000000000000000000000000001100 '
b00000000000000000000000001110000 (
b00000000000000000000000011010100 )
b00000000000000000000001111110011 *
b00000000000000000000010001010111 +
b00000000000000000000010010111011 ,
b00000000000000000000001111110100 -
b00000000000000000000010001011000 .
b00000000000000000000010010111100 /
10
#105
00
#110
b00000000000000000000000000001011 #
b00000000000000000000000000001100 $
b00000000000000000000000001110000 %
b00000000000000000000000011010100 &
b00000000000000000000000000001101 '
b00000000000000000000000001110001 (
b00000000000000000000000011010101 )
b00000000000000000000001111110100 *
b00000000000000000000010001011000 +
b00000000000000000000010010111100 ,
b00000000000000000000001111110101 -
b00000000000000000000010001011001 .
b00000000000000000000010010111101 /
10
#115
00
#120
b00000000000000000000000000001100 #
b00000000000000000000000000001101 $
b00000000000000000000000001110001 %
b00000000000000000000000011010101 &
b00000000000000000000000000001110 '
b00000000000000000000000001110010 (
b00000000000000000000000011010110 )
b00000000000000000000001111110101 *
b00000000000000000000010001011001 +
b00000000000000000000010010111101 ,
b00000000000000000000001111110110 -
b00000000000000000000010001011010 .
b00000000000000000000010010111110 /
10
#125
00
#130
b00000000000000000000000000001101 #
b00000000000000000000000000001110 $
b00000000000000000000000001110010 %
b00000000000000000000000011010110 &
b00000000000000000000000000001111 '
b00000000000000000000000001110011 (
b00000000000000000000000011010111 )
b00000000000000000000001111110110 *
b00000000000000000000010001011010 +
b00000000000000000000010010111110 ,
b00000000000000000000001111110111 -
b00000000000000000000010001011011 .
b00000000000000000000010010111111 /
10
#135
00
#140
b00000000000000000000000000001110 #
b00000000000000000000000000001111 $
b00000000000000000000000001110011 %
b00000000000000000000000011010111 &
b00000000000000000000000000010000 '
b00000000000000000000000001110100 (
b00000000000000000000000011011000 )
b00000000000000000000001111110111 *
b00000000000000000000010001011011 +
b00000000000000000000010010111111 ,
b00000000000000000000001111111000 -
b00000000000000000000010001011100 .
b00000000000000000000010011000000 /
10
#145
00
#150
b00000000000000000000000000001111 #
b00000000000000000000000000010000 $
b00000000000000000000000001110100 %
b00000000000000000000000011011000 &
b00000000000000000000000000010001 '
b00000000000000000000000001110101 (
b00000000000000000000000011011001 )
b00000000000000000000001111111000 *
b00000000000000000000010001011100 +
b00000000000000000000010011000000 ,
b00000000000000000000001111111001 -
b00000000000000000000010001011101 .
b00000000000000000000010011000001 /
10
#155
00
#160
b00000000000000000000000000010000 #
b00000000000000000000000000010001 $
b00000000000000000000000001110101 %
b00000000000000000000000011011001 &
b00000000000000000000000000010010 '
b00000000000000000000000001110110 (
b00000000000000000000000011011010 )
b00000000000000000000001111111001 *
b00000000000000000000010001011101 +
b00000000000000000000010011000001 ,
b00000000000000000000001111111010 -
b00000000000000000000010001011110 .
b00000000000000000000010011000010 /
10
#165
00
#170
b00000000000000000000000000010001 #
b00000000000000000000000000010010 $
b00000000000000000000000001110110 %
b00000000000000000000000011011010 &
b00000000000000000000000000010011 '
b00000000000000000000000001110111 (
b00000000000000000000000011011011 )
b00000000000000000000001111111010 *
b00000000000000000000010001011110 +
b00000000000000000000010011000010 ,
b00000000000000000000001111111011 -
b00000000000000000000010001011111 .
b00000000000000000000010011000011 /
10
#175
00
#180
b00000000000000000000000000010010 #
b00000000000000000000000000010011 $
b00000000000000000000000001110111 %
b00000000000000000000000011011011 &
b00000000000000000000000000010100 '
b00000000000000000000000001111000 (
b00000000000000000000000011011100 )
b00000000000000000000001111111011 *
b00000000000000000000010001011111 +
b00000000000000000000010011000011 ,
b00000000000000000000001111111100 -
b00000000000000000000010001100000 .
b00000000000000000000010011000100 /
10
#185
00
#190
b00000000000000000000000000010011 #
b00000000000000000000000000010100 $
b00000000000000000000000001111000 %
b00000000000000000000000011011100 &
b00000000000000000000000000010101 '
b00000000000000000000000001111001 (
b00000000000000000000000011011101 )
b00000000000000000000001111111100 *
b00000000000000000000010001100000 +
b00000000000000000000010011000100 ,
b00000000000000000000001111111101 -
b00000000000000000000010001100001 .
b00000000000000000000010011000101 /
10
#195
00
#200
b00000000000000000000000000010100 #
b00000000000000000000000000010101 $
b00000000000000000000000001111001 %
b00000000000000000000000011011101 &
b00000000000000000000000000010110 '
b00000000000000000000000001111010 (
b00000000000000000000000011011110 )
b00000000000000000000001111111101 *
b00000000000000000000010001100001 +
b00000000000000000000010011000101 ,
b00000000000000000000001111111110 -
b00000000000000000000010001100010 .
b00000000000000000000010011000110 /
10
#205
00
#210
b00000000000000000000000000010101 #
b00000000000000000000000000010110 $
b00000000000000000000000001111010 %
b00000000000000000000000011011110 &
b00000000000000000000000000010111 '
b00000000000000000000000001111011 (
b00000000000000000000000011011111 )
b00000000000000000000001111111110 *
b00000000000000000000010001100010 +
b00000000000000000000010011000110 ,
b00000000000000000000001111111111 -
b00000000000000000000010001100011 .
b00000000000000000000010011000111 /
10
